<?xml version="1.0" encoding="utf-8"?>
<!-- Generator: Adobe Illustrator 26.2.1, SVG Export Plug-In . SVG Version: 6.00 Build 0)  -->
<svg version="1.1" id="Layer_2" xmlns="http://www.w3.org/2000/svg" xmlns:xlink="http://www.w3.org/1999/xlink" x="0px" y="0px"
	 viewBox="0 0 414 232.5" style="enable-background:new 0 0 414 232.5;" xml:space="preserve">
<style type="text/css">
	.st0{fill:#A7A9AC;}
</style>
<g>
	<path class="st0" d="M10,6.8v219.4h102.2v-40H52.3V6.8C53.2,6.8,35.6,6.9,10,6.8z"/>
	<rect x="136" y="90.6" class="st0" width="40.5" height="134.8"/>
	<rect x="199.9" y="6.9" class="st0" width="41.3" height="218.5"/>
	<path class="st0" d="M367.5,93.3h41.1v131.2H367c0,0,0,0,0-12.8c-13.7,15.9-35.1,16.3-35.1,16.3s-27.3,3.1-46.7-17.6
		s-19.4-44-19.4-51.5s-0.4-18.1,9.7-38.3s33-30.8,55-30.8c22,0,36.9,17.2,36.9,17.2V93.3z M335.7,122c-18.9,0-34.1,16.6-34.1,37
		s15.3,37,34.1,37s34.1-16.6,34.1-37S354.5,122,335.7,122z"/>
	<polygon class="st0" points="156.7,8 164.3,31.6 189.2,31.6 169.1,46.2 176.8,69.9 156.7,55.3 136.5,69.9 144.2,46.2 124.1,31.6 
		149,31.6 	"/>
</g>
</svg>
